변형하기 – Data Science
…
행 함수: 행(관측 개체)에 작동하는 함수, 즉 행의 변화를 야기하는 함수

열 함수: 열(변수)에 작동하는 함수, 즉 열의 변화를 야기하는 함수

그룹 함수: 그룹에 작동하는 함수

데이터 프레임 함수: 데이터 프레임 전체에 작동하는 함수

이번 실습에서는 행 함수, 열 함수, 그룹 함수에 집중한다. 사용할 데이터는 World Bank가 gapmider.org를 통해 무료로 배포하는 것으로 gapmider 패키지에 포함되어 있다. gapmider 패키지를 인스톨하고 불러온다. 데이터가 어떻게 구성되어 있는지 살펴본다.

library(gapminder)
gapminder

# A tibble: 1,704 × 6
   country     continent  year lifeExp      pop gdpPercap
   <fct>       <fct>     <int>   <dbl>    <int>     <dbl>
 1 Afghanistan Asia       1952    28.8  8425333      779.
 2 Afghanistan Asia       1957    30.3  9240934      821.
 3 Afghanistan Asia       1962    32.0 10267083      853.
 4 Afghanistan Asia       1967    34.0 11537966      836.
 5 Afghanistan Asia       1972    36.1 13079460      740.
 6 Afghanistan Asia       1977    38.4 14880372      786.
 7 Afghanistan Asia       1982    39.9 12881816      978.
 8 Afghanistan Asia       1987    40.8 13867957      852.
 9 Afghanistan Asia       1992    41.7 16317921      649.
10 Afghanistan Asia       1997    41.8 22227415      635.
# ℹ 1,694 more rows

1.1 행 함수

1.1.1 filter() 함수

특정 열(변수)과 관련된 조건을 만족하는 행을 선정한다. 행의 길이가 준다.

gapminder |> 
  filter(continent == "Europe")

# A tibble: 360 × 6
   country continent  year lifeExp     pop gdpPercap
   <fct>   <fct>     <int>   <dbl>   <int>     <dbl>
 1 Albania Europe     1952    55.2 1282697     1601.
 2 Albania Europe     1957    59.3 1476505     1942.
 3 Albania Europe     1962    64.8 1728137     2313.
 4 Albania Europe     1967    66.2 1984060     2760.
 5 Albania Europe     1972    67.7 2263554     3313.
 6 Albania Europe     1977    68.9 2509048     3533.
 7 Albania Europe     1982    70.4 2780097     3631.
 8 Albania Europe     1987    72   3075321     3739.
 9 Albania Europe     1992    71.6 3326498     2497.
10 Albania Europe     1997    73.0 3428038     3193.
# ℹ 350 more rows
…
노트

slice 함수는 데이터 프레임이 적용되는 것으로 모두 데이터 프레임을 산출한다. 그런데 유사한 작업을 벡터에 적용하는 함수들이 존재한다. slice_head(), slice_tail(), slice()에 대응하는 dplyr 벡터 함수로 first(), last(), nth()가 있다. 그런데 후자의 함수를 벡터가 아닌 데이터 프레임이 적용하면 slice 함수와 동일한 결과가 산출된다.

1.1.3 arrange() 함수

특정 열(변수)과 관련된 조건에 의거해 행의 순서를 바꾼다. 행의 길이에는 변화가 없다.

gapminder |> 
  arrange(lifeExp)

# A tibble: 1,704 × 6
   country      continent  year lifeExp     pop gdpPercap
   <fct>        <fct>     <int>   <dbl>   <int>     <dbl>
 1 Rwanda       Africa     1992    23.6 7290203      737.
 2 Afghanistan  Asia       1952    28.8 8425333      779.
 3 Gambia       Africa     1952    30    284320      485.
 4 Angola       Africa     1952    30.0 4232095     3521.
 5 Sierra Leone Africa     1952    30.3 2143249      880.
 6 Afghanistan  Asia       1957    30.3 9240934      821.
 7 Cambodia     Asia       1977    31.2 6978607      525.
 8 Mozambique   Africa     1952    31.3 6446316      469.
 9 Sierra Leone Africa     1957    31.6 2295678     1004.
10 Burkina Faso Africa     1952    32.0 4469979      543.
# ℹ 1,694 more rows

desc() 보조 함수(helper function)는 내림차순으로 행을 배열한다.

gapminder |> 
  arrange(lifeExp, desc(year))

# A tibble: 1,704 × 6
   country      continent  year lifeExp     pop gdpPercap
   <fct>        <fct>     <int>   <dbl>   <int>     <dbl>
 1 Rwanda       Africa     1992    23.6 7290203      737.
 2 Afghanistan  Asia       1952    28.8 8425333      779.
 3 Gambia       Africa     1952    30    284320      485.
 4 Angola       Africa     1952    30.0 4232095     3521.
 5 Sierra Leone Africa     1952    30.3 2143249      880.
 6 Afghanistan  Asia       1957    30.3 9240934      821.
 7 Cambodia     Asia       1977    31.2 6978607      525.
 8 Mozambique   Africa     1952    31.3 6446316      469.
 9 Sierra Leone Africa     1957    31.6 2295678     1004.
10 Burkina Faso Africa     1952    32.0 4469979      543.
# ℹ 1,694 more rows

1.1.4 distinct() 함수

특정 열(변수)에 의거해 중복이 없이 고유한 행만을 골라낸다. 행의 길이가 준다.

gapminder 데이터와 관련하여 다음의 코드는 어떤 정보를 우리에게 주는지 생각해 본다.

gapminder |> 
  distinct(country)

# A tibble: 142 × 1
   country    
   <fct>      
 1 Afghanistan
 2 Albania    
 3 Algeria    
 4 Angola     
 5 Argentina  
 6 Australia  
 7 Austria    
 8 Bahrain    
 9 Bangladesh 
10 Belgium    
# ℹ 132 more rows
…
1.2 열 함수

1.2.1 select() 함수

열(변수)의 일부를 선택한다. 열의 길이가 준다.

gapminder |> 
  select(year, country, gdpPercap)

# A tibble: 1,704 × 3
    year country     gdpPercap
   <int> <fct>           <dbl>
 1  1952 Afghanistan      779.
 2  1957 Afghanistan      821.
 3  1962 Afghanistan      853.
 4  1967 Afghanistan      836.
 5  1972 Afghanistan      740.
 6  1977 Afghanistan      786.
 7  1982 Afghanistan      978.
 8  1987 Afghanistan      852.
 9  1992 Afghanistan      649.
10  1997 Afghanistan      635.
# ℹ 1,694 more rows

열(변수)의 일부를 선택하지 않는다. 역시 열의 길이가 준다. 실질적으로 위와 동일한 결과가 산출된다. ! 부호 대신 - 부호를 사용할 수 있다. 전자가 선호된다.

gapminder |> 
  select(!c(lifeExp, continent, pop))

# A tibble: 1,704 × 3
   country      year gdpPercap
   <fct>       <int>     <dbl>
 1 Afghanistan  1952      779.
 2 Afghanistan  1957      821.
 3 Afghanistan  1962      853.
 4 Afghanistan  1967      836.
 5 Afghanistan  1972      740.
 6 Afghanistan  1977      786.
 7 Afghanistan  1982      978.
 8 Afghanistan  1987      852.
 9 Afghanistan  1992      649.
10 Afghanistan  1997      635.
# ℹ 1,694 more rows

starts_with(), ends_with(), contains()와 같은 보조 함수를 잘 활용하면 효율적으로 필요한 변수만을 선정할 수 있다.

gapminder |> 
  select(starts_with("c"))

# A tibble: 1,704 × 2
   country     continent
   <fct>       <fct>    
 1 Afghanistan Asia     
 2 Afghanistan Asia     
 3 Afghanistan Asia     
 4 Afghanistan Asia     
 5 Afghanistan Asia     
 6 Afghanistan Asia     
 7 Afghanistan Asia     
 8 Afghanistan Asia     
 9 Afghanistan Asia     
10 Afghanistan Asia     
# ℹ 1,694 more rows

1.2.2 mutate() 함수

기존의 열(변수)에 기반하여 새로운 변수를 생성한다. 열의 길이가 늘어난다.

gapminder |> 
  mutate(
    gdp_billion = gdpPercap * pop / 10^9
  )

# A tibble: 1,704 × 7
   country     continent  year lifeExp      pop gdpPercap gdp_billion
   <fct>       <fct>     <int>   <dbl>    <int>     <dbl>       <dbl>
 1 Afghanistan Asia       1952    28.8  8425333      779.        6.57
 2 Afghanistan Asia       1957    30.3  9240934      821.        7.59
 3 Afghanistan Asia       1962    32.0 10267083      853.        8.76
 4 Afghanistan Asia       1967    34.0 11537966      836.        9.65
 5 Afghanistan Asia       1972    36.1 13079460      740.        9.68
 6 Afghanistan Asia       1977    38.4 14880372      786.       11.7 
 7 Afghanistan Asia       1982    39.9 12881816      978.       12.6 
 8 Afghanistan Asia       1987    40.8 13867957      852.       11.8 
 9 Afghanistan Asia       1992    41.7 16317921      649.       10.6 
10 Afghanistan Asia       1997    41.8 22227415      635.       14.1 
# ℹ 1,694 more rows

여러개의 변수를 동시에 생성할 수 있다. row_number() 보조 함수는 값에 순위를 부여하는 것이고, .keep = "used"는 결과에 변수 생성에 동원된 변수만을 포함시키게 해 준다.

gapminder |> 
  filter(year == 2007) |> 
  mutate(
    gdpPercap_rank = row_number(gdpPercap),
    lifeExp_highlow = lifeExp > 30000,
    .keep = "used"
  )

# A tibble: 142 × 4
   lifeExp gdpPercap gdpPercap_rank lifeExp_highlow
     <dbl>     <dbl>          <int> <lgl>          
 1    43.8      975.             19 FALSE          
 2    76.4     5937.             70 FALSE          
 3    72.3     6223.             72 FALSE          
 4    42.7     4797.             64 FALSE          
 5    75.3    12779.            101 FALSE          
 6    81.2    34435.            130 FALSE          
 7    79.8    36126.            132 FALSE          
 8    75.6    29796.            122 FALSE          
 9    64.1     1391.             30 FALSE          
10    79.4    33693.            128 FALSE          
# ℹ 132 more rows
노트

dplyr 패키지는 데이터에 순위를 부여하는 여러 가지 방식을 제공하는데, row_number(), min_rank(), dense_rank(), percent_rank(), cumu_dist() 등이 있다. 자세한 사항은 맨 아래에 있는 기타 벡터 함수를 참고하면 된다.

1.2.3 rename() 함수

변수의 이름을 바꾼다. 열의 길이에는 변화가 없다. = 부호의 왼쪽에 있는 것이 새로운 변수명이다.

gapminder |> 
  rename(
    gdp_percap = gdpPercap,
    left_exp = lifeExp
  )

# A tibble: 1,704 × 6
   country     continent  year left_exp      pop gdp_percap
   <fct>       <fct>     <int>    <dbl>    <int>      <dbl>
 1 Afghanistan Asia       1952     28.8  8425333       779.
 2 Afghanistan Asia       1957     30.3  9240934       821.
 3 Afghanistan Asia       1962     32.0 10267083       853.
 4 Afghanistan Asia       1967     34.0 11537966       836.
 5 Afghanistan Asia       1972     36.1 13079460       740.
 6 Afghanistan Asia       1977     38.4 14880372       786.
 7 Afghanistan Asia       1982     39.9 12881816       978.
 8 Afghanistan Asia       1987     40.8 13867957       852.
 9 Afghanistan Asia       1992     41.7 16317921       649.
10 Afghanistan Asia       1997     41.8 22227415       635.
# ℹ 1,694 more rows

패밀리 함수인 rename_with()를 이용하면 다른 것도 가능하다. tolower은 변수명을 소문자로 바꾸는 보조 함수이고, toupper은 대문자로 바꾸는 보조 함수이다.

gapminder |> 
  rename_with(
    tolower, starts_with("l")
  )

# A tibble: 1,704 × 6
   country     continent  year lifeexp      pop gdpPercap
   <fct>       <fct>     <int>   <dbl>    <int>     <dbl>
 1 Afghanistan Asia       1952    28.8  8425333      779.
 2 Afghanistan Asia       1957    30.3  9240934      821.
 3 Afghanistan Asia       1962    32.0 10267083      853.
 4 Afghanistan Asia       1967    34.0 11537966      836.
 5 Afghanistan Asia       1972    36.1 13079460      740.
 6 Afghanistan Asia       1977    38.4 14880372      786.
 7 Afghanistan Asia       1982    39.9 12881816      978.
 8 Afghanistan Asia       1987    40.8 13867957      852.
 9 Afghanistan Asia       1992    41.7 16317921      649.
10 Afghanistan Asia       1997    41.8 22227415      635.
# ℹ 1,694 more rows

1.2.4 relocate() 함수

변수의 위치를 바꾼다. 열의 길이에는 변화가 없다. 기입한 변수들이 맨 앞으로 이동한다.

gapminder |> 
  relocate(year, continent)

# A tibble: 1,704 × 6
    year continent country     lifeExp      pop gdpPercap
   <int> <fct>     <fct>         <dbl>    <int>     <dbl>
 1  1952 Asia      Afghanistan    28.8  8425333      779.
 2  1957 Asia      Afghanistan    30.3  9240934      821.
 3  1962 Asia      Afghanistan    32.0 10267083      853.
 4  1967 Asia      Afghanistan    34.0 11537966      836.
 5  1972 Asia      Afghanistan    36.1 13079460      740.
 6  1977 Asia      Afghanistan    38.4 14880372      786.
 7  1982 Asia      Afghanistan    39.9 12881816      978.
 8  1987 Asia      Afghanistan    40.8 13867957      852.
 9  1992 Asia      Afghanistan    41.7 16317921      649.
10  1997 Asia      Afghanistan    41.8 22227415      635.
# ℹ 1,694 more rows

.before나 .after 아규먼트를 사용하여 해당 변수를 어떤 변수의 앞이나 뒤로 보낼 수 있다.

gapminder |> 
  relocate(pop, .before = lifeExp )

# A tibble: 1,704 × 6
   country     continent  year      pop lifeExp gdpPercap
   <fct>       <fct>     <int>    <int>   <dbl>     <dbl>
 1 Afghanistan Asia       1952  8425333    28.8      779.
 2 Afghanistan Asia       1957  9240934    30.3      821.
 3 Afghanistan Asia       1962 10267083    32.0      853.
 4 Afghanistan Asia       1967 11537966    34.0      836.
 5 Afghanistan Asia       1972 13079460    36.1      740.
 6 Afghanistan Asia       1977 14880372    38.4      786.
 7 Afghanistan Asia       1982 12881816    39.9      978.
 8 Afghanistan Asia       1987 13867957    40.8      852.
 9 Afghanistan Asia       1992 16317921    41.7      649.
10 Afghanistan Asia       1997 22227415    41.8      635.
# ℹ 1,694 more rows
…
좀 성가시게 길어지는 측면이 있다. 이 때 pull() 함수는 유용하게 사용될 수 있고, tidyverse문법을 지키면서도 코드를 좀 더 간명하게 표현할 수 있다.

1.3 그룹 함수

1.3.1 group_by() 함수

특정 범주 열(변수)에 의거해 행을 분할한다. 행의 길이는 변하지 않는다.

우선 하나의 범주 변수에 의거해 그룹화한다. 산출물을 보면 year에 의거해 행이 12개의 그룹으로 나누어졌음을 알 수 있다(두 번째 줄: Group: year [12]).

gapminder |> 
  group_by(year)

# A tibble: 1,704 × 6
# Groups:   year [12]
   country     continent  year lifeExp      pop gdpPercap
   <fct>       <fct>     <int>   <dbl>    <int>     <dbl>
 1 Afghanistan Asia       1952    28.8  8425333      779.
 2 Afghanistan Asia       1957    30.3  9240934      821.
 3 Afghanistan Asia       1962    32.0 10267083      853.
 4 Afghanistan Asia       1967    34.0 11537966      836.
 5 Afghanistan Asia       1972    36.1 13079460      740.
 6 Afghanistan Asia       1977    38.4 14880372      786.
 7 Afghanistan Asia       1982    39.9 12881816      978.
 8 Afghanistan Asia       1987    40.8 13867957      852.
 9 Afghanistan Asia       1992    41.7 16317921      649.
10 Afghanistan Asia       1997    41.8 22227415      635.
# ℹ 1,694 more rows

두 개 이상의 범주 변수에 의거해 그룹화할 수도 있다.

gapminder |> 
  group_by(year, continent)

# A tibble: 1,704 × 6
# Groups:   year, continent [60]
   country     continent  year lifeExp      pop gdpPercap
   <fct>       <fct>     <int>   <dbl>    <int>     <dbl>
 1 Afghanistan Asia       1952    28.8  8425333      779.
 2 Afghanistan Asia       1957    30.3  9240934      821.
 3 Afghanistan Asia       1962    32.0 10267083      853.
 4 Afghanistan Asia       1967    34.0 11537966      836.
 5 Afghanistan Asia       1972    36.1 13079460      740.
 6 Afghanistan Asia       1977    38.4 14880372      786.
 7 Afghanistan Asia       1982    39.9 12881816      978.
 8 Afghanistan Asia       1987    40.8 13867957      852.
 9 Afghanistan Asia       1992    41.7 16317921      649.
10 Afghanistan Asia       1997    41.8 22227415      635.
# ℹ 1,694 more rows
…
좀 더 복잡한 확장이 가능하다. 마지막의 n()은 특별한 요약 함수로, 어떤 아규먼트도 없이 단독으로 사용되며 “현재(current)” 그룹의 빈도값을 산출한다.

gapminder |> 
    group_by(continent, year) |> 
    summarize(
      mean_gdpPercap = mean(gdpPercap),
      sd_gdpPercap = sd(gdpPercap),
      mean_pop = mean(pop),
      sd_pop = sd(pop),
      n = n()
    )

# A tibble: 60 × 7
# Groups:   continent [5]
   continent  year mean_gdpPercap sd_gdpPercap  mean_pop    sd_pop     n
   <fct>     <int>          <dbl>        <dbl>     <dbl>     <dbl> <int>
 1 Africa     1952          1253.         983.  4570010.  6317450.    52
 2 Africa     1957          1385.        1135.  5093033.  7076042.    52
 3 Africa     1962          1598.        1462.  5702247.  7957545.    52
 4 Africa     1967          2050.        2848.  6447875.  8985505.    52
 5 Africa     1972          2340.        3287.  7305376. 10130833.    52
 6 Africa     1977          2586.        4142.  8328097. 11585184.    52
 7 Africa     1982          2482.        3243.  9602857. 13456243.    52
 8 Africa     1987          2283.        2567. 11054502. 15277484.    52
 9 Africa     1992          2282.        2644. 12674645. 17562719.    52
10 Africa     1997          2379.        2821. 14304480. 19873013.    52
# ℹ 50 more rows

group_by()와 arrange()를 결합하는 경우, .by_group = TRUE를 하면 그룹별로 행을 배열할 수 있다(그렇지 않으면 그룹 설정을 무시한 채 행을 배열한다.)

gapminder |> 
  group_by(year, continent) |> 
  arrange(desc(gdpPercap), .by_group = TRUE)

# A tibble: 1,704 × 6
# Groups:   year, continent [60]
   country      continent  year lifeExp      pop gdpPercap
   <fct>        <fct>     <int>   <dbl>    <int>     <dbl>
 1 South Africa Africa     1952    45.0 14264935     4725.
 2 Gabon        Africa     1952    37.0   420702     4293.
 3 Angola       Africa     1952    30.0  4232095     3521.
 4 Reunion      Africa     1952    52.7   257700     2719.
 5 Djibouti     Africa     1952    34.8    63149     2670.
 6 Algeria      Africa     1952    43.1  9279525     2449.
 7 Namibia      Africa     1952    41.7   485831     2424.
 8 Libya        Africa     1952    42.7  1019729     2388.
 9 Congo, Rep.  Africa     1952    42.1   854885     2126.
10 Mauritius    Africa     1952    51.0   516556     1968.
# ℹ 1,694 more rows

아래는 연도별/대륙별로 일인당 GDP가 가장 높은 국가를 추출한 것이다. 코드를 생각해 보라.

# A tibble: 60 × 6
# Groups:   year, continent [60]
   country       continent  year lifeExp       pop gdpPercap
   <fct>         <fct>     <int>   <dbl>     <int>     <dbl>
 1 South Africa  Africa     1952    45.0  14264935     4725.
 2 United States Americas   1952    68.4 157553000    13990.
 3 Kuwait        Asia       1952    55.6    160000   108382.
 4 Switzerland   Europe     1952    69.6   4815000    14734.
 5 New Zealand   Oceania    1952    69.4   1994794    10557.
 6 South Africa  Africa     1957    48.0  16151549     5487.
 7 United States Americas   1957    69.5 171984000    14847.
 8 Kuwait        Asia       1957    58.0    212846   113523.
 9 Switzerland   Europe     1957    70.6   5126000    17909.
10 New Zealand   Oceania    1957    70.3   2229407    12247.
# ℹ 50 more rows

group_by() 함수가 한 번 적용되면, 그 뒤의 모든 오퍼레이션에 그룹 분할이 적용되기 때문에 예기치 못한 일이 발생할 수 있다. 이것을 회피하기 위해 두 가지 옵션이 있다. 첫번째 방법은 마지막에 upgroup() 함수를 첨가하는 것이다. 아래에 위 질문에 대한 정답이 나타나 있다.

gapminder |> 
  group_by(year, continent) |> 
  slice_max(gdpPercap) |> 
  ungroup()

# A tibble: 60 × 6
   country       continent  year lifeExp       pop gdpPercap
   <fct>         <fct>     <int>   <dbl>     <int>     <dbl>
 1 South Africa  Africa     1952    45.0  14264935     4725.
 2 United States Americas   1952    68.4 157553000    13990.
 3 Kuwait        Asia       1952    55.6    160000   108382.
 4 Switzerland   Europe     1952    69.6   4815000    14734.
 5 New Zealand   Oceania    1952    69.4   1994794    10557.
 6 South Africa  Africa     1957    48.0  16151549     5487.
 7 United States Americas   1957    69.5 171984000    14847.
 8 Kuwait        Asia       1957    58.0    212846   113523.
 9 Switzerland   Europe     1957    70.6   5126000    17909.
10 New Zealand   Oceania    1957    70.3   2229407    12247.
# ℹ 50 more rows

두 번째 방법은 group_by() 함수 대신 by 아규먼트를 사용하는 것이다. 결과가 달라보이겠지만 정렬의 차이일 뿐 동일하다.

gapminder |> 
  slice_max(
    gdpPercap, 
    by = c(year, continent)
  )

# A tibble: 60 × 6
   country      continent  year lifeExp      pop gdpPercap
   <fct>        <fct>     <int>   <dbl>    <int>     <dbl>
 1 Kuwait       Asia       1952    55.6   160000   108382.
 2 Kuwait       Asia       1957    58.0   212846   113523.
 3 Kuwait       Asia       1962    60.5   358266    95458.
 4 Kuwait       Asia       1967    64.6   575003    80895.
 5 Kuwait       Asia       1972    67.7   841934   109348.
 6 Kuwait       Asia       1977    69.3  1140357    59265.
 7 Saudi Arabia Asia       1982    63.0 11254672    33693.
 8 Kuwait       Asia       1987    74.2  1891487    28118.
 9 Kuwait       Asia       1992    75.2  1418095    34933.
10 Kuwait       Asia       1997    76.2  1765345    40301.
# ℹ 50 more rows

1.3.3 count() 함수

특정 범주 열(변수)에 의거한 빈도를 빠르게 계산해 준다. 빈도는 자동적으로 n이라는 이럼의 컬럼에 저장된다.

gapminder |> 
  count(year, continent)

# A tibble: 60 × 3
    year continent     n
   <int> <fct>     <int>
 1  1952 Africa       52
 2  1952 Americas     25
 3  1952 Asia         33
 4  1952 Europe       30
 5  1952 Oceania       2
 6  1957 Africa       52
 7  1957 Americas     25
 8  1957 Asia         33
 9  1957 Europe       30
10  1957 Oceania       2
# ℹ 50 more rows

wt 아규먼트를 사용하면 빈도가 아니라 범주별 특정 변수의 합산값을 구할 수 있다.

gapminder |> 
  count(year, continent, wt = pop)

# A tibble: 60 × 3
    year continent          n
   <int> <fct>          <dbl>
 1  1952 Africa     237640501
 2  1952 Americas   345152446
 3  1952 Asia      1395357351
 4  1952 Europe     418120846
 5  1952 Oceania     10686006
 6  1957 Africa     264837738
 7  1957 Americas   386953916
 8  1957 Asia      1562780599
 9  1957 Europe     437890351
10  1957 Oceania     11941976
# ℹ 50 more rows

위의 두 개는 사실 아래와 동일하다.

gapminder |> 
  group_by(year, continent) |> 
  summarize(
    n = n(),
    sum_pop = sum(pop)
  )

# A tibble: 60 × 4
# Groups:   year [12]
    year continent     n    sum_pop
   <int> <fct>     <int>      <dbl>
 1  1952 Africa       52  237640501
 2  1952 Americas     25  345152446
 3  1952 Asia         33 1395357351
 4  1952 Europe       30  418120846
 5  1952 Oceania       2   10686006
 6  1957 Africa       52  264837738
 7  1957 Americas     25  386953916
 8  1957 Asia         33 1562780599
 9  1957 Europe       30  437890351
10  1957 Oceania       2   11941976
# ℹ 50 more rows
…
