수집하기 – Data Science
…
[1] "George Lucas"     "George Lucas"     "George Lucas"     "George Lucas"    
[5] "Irvin Kershner"   "Richard Marquand" "J. J. Abrams"    

2.5 웹스크레이핑의 실제 1: 테이블이 하나 있는 경우

위키피디어의 전 세계 국가 관련 항목(List of countries and dependencies by population)에는 표가 하나 들어있는데, 해당 표의 데이터를 웹스크레이핑 기법을 활용해 수집해 보기로 한다. 테이블이 하나이므로 html_element() 함수를 사용하고, 데이터 형식이 테이블이므로 html_table() 함수를 적용한다.

url <- "https://en.wikipedia.org/wiki/List_of_countries_and_dependencies_by_population"
my_table <- url |> 
  read_html() |> 
  html_element("table") |> 
  html_table()
my_table

# A tibble: 240 × 6
   Location      Population    `% ofworld` Date     Source (official or …¹ Notes
   <chr>         <chr>         <chr>       <chr>    <chr>                  <chr>
 1 World         8,232,000,000 100%        13 Jun … UN projection[1][3]    ""   
 2 India         1,417,492,000 17.3%       1 Jul 2… Official projection[4] "[b]"
 3 China         1,408,280,000 17.2%       31 Dec … Official estimate[5]   "[c]"
 4 United States 340,110,988   4.1%        1 Jul 2… Official estimate[6]   "[d]"
 5 Indonesia     284,438,782   3.5%        30 Jun … National annual proje… ""   
 6 Pakistan      241,499,431   2.9%        1 Mar 2… 2023 census result[8]  "[e]"
 7 Nigeria       223,800,000   2.7%        1 Jul 2… Official projection[9] ""   
 8 Brazil        213,421,037   2.6%        1 Jul 2… Official estimate[10]  ""   
 9 Bangladesh    169,828,911   2.1%        14 Jun … 2022 census result[11] "[f]"
10 Russia        146,028,325   1.8%        1 Jan 2… Official estimate[13]  "[g]"
# ℹ 230 more rows
# ℹ abbreviated name: ¹​`Source (official or fromthe United Nations)`
…
    population = "Population",
    pop_pct = "% ofworld",
    date = "Date",
    source = "Source (official or fromthe United Nations)"
  ) |> 
  mutate(
    population = parse_number(population, ","),
    population = as.numeric(population),
    pop_pct = str_remove_all(pop_pct, "%"),
    pop_pct = as.numeric(pop_pct),
    date = dmy(date)
  )
my_table_new

# A tibble: 240 × 5
   location      population pop_pct date       source                       
   <chr>              <dbl>   <dbl> <date>     <chr>                        
 1 World         8232000000   100   2025-06-13 UN projection[1][3]          
 2 India         1417492000    17.3 2025-07-01 Official projection[4]       
 3 China         1408280000    17.2 2024-12-31 Official estimate[5]         
 4 United States  340110988     4.1 2024-07-01 Official estimate[6]         
 5 Indonesia      284438782     3.5 2025-06-30 National annual projection[7]
 6 Pakistan       241499431     2.9 2023-03-01 2023 census result[8]        
 7 Nigeria        223800000     2.7 2023-07-01 Official projection[9]       
 8 Brazil         213421037     2.6 2025-07-01 Official estimate[10]        
 9 Bangladesh     169828911     2.1 2022-06-14 2022 census result[11]       
10 Russia         146028325     1.8 2025-01-01 Official estimate[13]        
# ℹ 230 more rows
…
[[1]]
# A tibble: 5 × 6
  X1       X2           X3                 X4           X5               X6     
  <chr>    <chr>        <chr>              <chr>        <chr>            <chr>  
1 "거래량" "매수호가"   "거래대금(백만)"   시가총액(억) 영업이익(억)     PER(배)
2 "시가"   "매도호가"   "전일거래량"       자산총계(억) 영업이익증가율   ROE(%) 
3 "고가"   "매수총잔량" "외국인비율"       부채총계(억) 당기순이익(억)   ROA(%) 
4 "저가"   "매도총잔량" "상장주식수(천주)" 매출액(억)   주당순이익(원)   PBR(배)
5 ""       ""           ""                 매출액증가율 보통주배당금(원) 유보율(%)…

[[2]]
# A tibble: 161 × 12
       N 종목명  현재가 전일비 등락률 거래량 거래대금 매수호가 매도호가 시가총액
   <int> <chr>   <chr>  <chr>  <chr>  <chr>  <chr>    <chr>    <chr>    <chr>   
 1    NA ""      ""     ""     ""     ""     ""       ""       ""       ""      
 2     1 "KODEX… "658"  "하락\n… "-6.2… "1,07… "727,19… "658"    "659"    "13,714"
 3     2 "KODEX… "2,49… "하락\n… "-2.9… "82,2… "207,59… "2,495"  "2,500"  "7,245" 
 4     3 "대원전선"… "4,22… "상승\n… "+15.… "58,4… "244,05… "4,220"  "4,225"  "3,164" 
 5     4 "KODEX… "1,90… "상승\n… "+3.1… "49,0… "91,423" "1,900"  "1,901"  "5,812" 
 6     5 "삼성전자"… "111,… "상승\n… "+3.3… "29,9… "3,277,… "111,10… "111,20… "6,576,…
 7    NA ""      ""     ""     ""     ""     ""       ""       ""       ""      
 8    NA ""      ""     ""     ""     ""     ""       ""       ""       ""      
 9    NA ""      ""     ""     ""     ""     ""       ""       ""       ""      
10     6 "KODEX… "47,3… "상승\n… "+6.2… "29,6… "1,372,… "47,300" "47,305" "33,157"
# ℹ 151 more rows
# ℹ 2 more variables: PER <chr>, ROE <chr>
…
2.6 웹스크레이핑의 실제 2: 테이블이 둘 이상인 경우

위키피디어의 국가별 약어 관련 항목(List of FIPS country codes)에는 동일한 내용이 여러개로 표로 나뉘어 제시되어 있다. 개별 표의 데이터를 수집한 후 결합하여 단일한 데이터 프레임을 구성할 필요가 있다. 테이블이 여러개이므로 html_elements() 함수를 사용한다. tidyverse의 핵심 패키지 중 하나이 dplyr 패키지의 bind_rows() 함수를 활용하여 테이블들을 하나의 테이블로 만든다.

url <- "https://en.wikipedia.org/wiki/List_of_FIPS_country_codes"
my_tables <- url |> 
  read_html() |> 
  html_elements("table") |> 
  html_table() |> 
  bind_rows()
my_tables

# A tibble: 277 × 10
   Code    `Short-form name` .mw-parser-output .n…¹ .mw-parser-output .n…² ...3 
   <chr>   <chr>             <chr>                  <chr>                  <chr>
 1 .mw-pa… Aruba             <NA>                   <NA>                   <NA> 
 2 AC      Antigua and Barb… <NA>                   <NA>                   <NA> 
 3 AD      Akrotiri          <NA>                   <NA>                   <NA> 
 4 AE      United Arab Emir… <NA>                   <NA>                   <NA> 
 5 AF      Afghanistan       <NA>                   <NA>                   <NA> 
 6 AG      Algeria           <NA>                   <NA>                   <NA> 
 7 AJ      Azerbaijan        <NA>                   <NA>                   <NA> 
 8 AL      Albania           <NA>                   <NA>                   <NA> 
 9 AM      Armenia           <NA>                   <NA>                   <NA> 
10 AN      Andorra           <NA>                   <NA>                   <NA> 
# ℹ 267 more rows
# ℹ abbreviated names:
…
앞에서 배운 기법을 활용해 데이터를 정리한다.

my_tables_new <- my_tables |> 
  select(1, 2) |> 
  rename(
    code = "Code", 
    short_name = "Short-form name"
  ) |> 
  mutate(
    code = str_extract(code, "[A-Z][A-Z]")
  )
my_tables_new

# A tibble: 277 × 2
   code  short_name          
   <chr> <chr>               
 1 AA    Aruba               
 2 AC    Antigua and Barbuda 
 3 AD    Akrotiri            
 4 AE    United Arab Emirates
 5 AF    Afghanistan         
 6 AG    Algeria             
 7 AJ    Azerbaijan          
 8 AL    Albania             
 9 AM    Armenia             
10 AN    Andorra             
# ℹ 267 more rows
…
노트

여기서는 case_match() 함수에 주목할 필요가 있다. case_match() 함수는 데이터 변형을 위한 tidyverse의 핵심 패키지인 dplyr의 벡터 함수로서, 벡터의 각 요소에 조건 부합성을 검토하고 그것을 통해 새로운 값을 부여할 수 있게 해준다. 우선 변환을 위한 컬럼을 지정하고, ~ 기호를 중심으로 왼편에 현재의 값을, 오른편에 새로운 값을 놓으면 된다. 보통 여러 조건을 나열해 모든 케이스가 새로운 값을 갖게 하지만, 간혹 해당 되는 조건이 없는 케이스를 위해 .default 아규먼트를 사용한다. forcats 패키지에서 문자형 벡터의 레벨(level)을 새로운 레벨로 교체하는데 사용되는 fct_recode() 함수와 유사하다. case_match() 함수와 유사한 함수에 case_when()가 있다. case_match() 함수가 단일 컬럼의 개별 값을 전환할 때 사용되는 함수라면, case_when()은 단일 컬럼에 다양한 조건을 설정하거나 두 개 이상의 컬럼이 개입되는 경우에 사용할 수 있는 함수이다. 따라서 case_match() 함수의 경우는 컬럼명이 한 번만 등장하면 되지만, case_when()에서는 개별 조건에 해당 컬럼명이 등장해야 한다. 아래의 그래프에 활용의 예가 나타나 있다.

시도 데이터와 시군구 데이터를 분리하여 저장한다.

data_sido <- data |> 
  filter(nchar(C1) == 2) 
data_sigungu <- data |> 
  filter(nchar(C1) == 5 & !C1_NM %in% c("동부", "면부", "읍부") & str_sub(C1, 5, 5) == 0)
write_rds(data_sido, "data_sido.rds")
write_rds(data_sigungu, "data_sigungu.rds")
read_rds("data_sigungu.rds")

# A tibble: 229 × 3
      C1 C1_NM    index
   <dbl> <chr>    <dbl>
 1 11010 종로구   0.932
 2 11020 중구     0.932
 3 11030 용산구   0.972
 4 11040 성동구   0.951
 5 11050 광진구   1.15 
 6 11060 동대문구 0.971
 7 11070 중랑구   0.706
 8 11080 성북구   0.884
 9 11090 강북구   0.561
10 11100 도봉구   0.535
# ℹ 219 more rows
…
