Data Science - 데이터 수집하기
…
[1] "George Lucas"     "George Lucas"     "George Lucas"     "George Lucas"    
[5] "Irvin Kershner"   "Richard Marquand" "J. J. Abrams"    

2.5 웹스크레이핑의 실제 1: 테이블이 하나 있는 경우

위키피디어의 한 항목(List of countries and dependencies by population)에는 표 하나가 포함되어 있다. 해당 표의 데이터를 수집한다.

url <- "https://en.wikipedia.org/wiki/List_of_countries_and_dependencies_by_population"
my_table <- url |> 
  read_html() |> 
  html_element("table") |> 
  html_table()
my_table

# A tibble: 241 × 7
   ``      Location    Population `% ofworld` Date  Source (official or …¹ ``   
   <chr>   <chr>       <chr>      <chr>       <chr> <chr>                  <chr>
 1 –       World       8,118,865… 100%        17 J… UN projection[3]       ""   
 2 1/2 [b] China       1,409,670… 17.4%       31 D… Official estimate[5]   "[c]"
 3 1/2 [b] India       1,404,910… 17.3%       1 Ju… Official projection[6] "[d]"
 4 3       United Sta… 335,893,2… 4.1%        1 Ja… Official estimate[7]   "[e]"
 5 4       Indonesia   281,603,8… 3.5%        1 Ju… National annual proje… ""   
 6 5       Pakistan    241,499,4… 3.0%        1 Ma… 2023 census result[9]  "[f]"
 7 6       Nigeria     223,800,0… 2.8%        1 Ju… Official projection[1… ""   
 8 7       Brazil      203,080,7… 2.5%        1 Au… 2022 census result[11] ""   
 9 8       Bangladesh  169,828,9… 2.1%        14 J… 2022 census result[12] ""   
10 9       Russia      146,150,7… 1.8%        1 Ja… Official estimate[13]  "[g]"
# ℹ 231 more rows
# ℹ abbreviated name: ¹​`Source (official or fromthe United Nations)`
…
    population = "Population",
    pop_pct = "% ofworld",
    date = "Date",
    source = "Source (official or fromthe United Nations)"
  ) |> 
  mutate(
    population = str_remove_all(population, ","),
    population = as.numeric(population),
    pop_pct = str_remove(pop_pct, "%"),
    pop_pct = as.numeric(pop_pct),
    date = dmy(date)
  )
my_table

# A tibble: 241 × 5
   location      population pop_pct date       source                       
   <chr>              <dbl>   <dbl> <date>     <chr>                        
 1 World         8118865000   100   2024-07-17 UN projection[3]             
 2 China         1409670000    17.4 2023-12-31 Official estimate[5]         
 3 India         1404910000    17.3 2024-07-01 Official projection[6]       
 4 United States  335893238     4.1 2024-01-01 Official estimate[7]         
 5 Indonesia      281603800     3.5 2024-07-01 National annual projection[8]
 6 Pakistan       241499431     3   2023-03-01 2023 census result[9]        
 7 Nigeria        223800000     2.8 2023-07-01 Official projection[10]      
 8 Brazil         203080756     2.5 2022-08-01 2022 census result[11]       
 9 Bangladesh     169828911     2.1 2022-06-14 2022 census result[12]       
10 Russia         146150789     1.8 2024-01-01 Official estimate[13]        
# ℹ 231 more rows

2.6 웹스크레이핑의 실제 2: 테이블이 둘 이상인 경우

위키피디어의 한 항목(List of FIPS country codes)에는 동일한 내용에 대해 여러 개의 표가 나타나 있다. 개별 표의 데이터를 수집한 후 결합하여 단일한 데이터 프레임을 구성한다.

url <- "https://en.wikipedia.org/wiki/List_of_FIPS_country_codes"
my_tables <- url |> 
  read_html() |> 
  html_elements("table") |> 
  html_table() |> 
  bind_rows()
my_tables

# A tibble: 283 × 10
   Code    `Short-form name` .mw-parser-output .n…¹ .mw-parser-output .n…² ...3 
   <chr>   <chr>             <chr>                  <chr>                  <chr>
 1 .mw-pa… Aruba             <NA>                   <NA>                   <NA> 
 2 AC      Antigua and Barb… <NA>                   <NA>                   <NA> 
 3 AE      United Arab Emir… <NA>                   <NA>                   <NA> 
 4 AF      Afghanistan       <NA>                   <NA>                   <NA> 
 5 AG      Algeria           <NA>                   <NA>                   <NA> 
 6 AJ      Azerbaijan        <NA>                   <NA>                   <NA> 
 7 AL      Albania           <NA>                   <NA>                   <NA> 
 8 AM      Armenia           <NA>                   <NA>                   <NA> 
 9 AN      Andorra           <NA>                   <NA>                   <NA> 
10 AO      Angola            <NA>                   <NA>                   <NA> 
# ℹ 273 more rows
# ℹ abbreviated names:
…
my_tables <- my_tables |> 
  select(1, 2) |> 
  rename(
    code = "Code", 
    short_name = "Short-form name"
  ) |> 
  mutate(
    code = str_extract(code, "[A-Z][A-Z]")
  )
my_tables

# A tibble: 283 × 2
   code  short_name          
   <chr> <chr>               
 1 AA    Aruba               
 2 AC    Antigua and Barbuda 
 3 AE    United Arab Emirates
 4 AF    Afghanistan         
 5 AG    Algeria             
 6 AJ    Azerbaijan          
 7 AL    Albania             
 8 AM    Armenia             
 9 AN    Andorra             
10 AO    Angola              
# ℹ 273 more rows
…
시도 데이터와 시군구 데이터를 분리하여 저장한다.

data_sido <- data |> 
  filter(nchar(C1) == 2) 
data_sigungu <- data |> 
  filter(nchar(C1) == 5 & !C1_NM %in% c("동부", "면부", "읍부") & str_sub(C1, 5, 5) == 0)
write_rds(data_sigungu, "data_sigungu.rds")
read_rds("data_sigungu.rds")

# A tibble: 229 × 3
      C1 C1_NM    index
   <dbl> <chr>    <dbl>
 1 11010 종로구   0.965
 2 11020 중구     0.931
 3 11030 용산구   1.02 
 4 11040 성동구   1.00 
 5 11050 광진구   1.20 
 6 11060 동대문구 0.994
 7 11070 중랑구   0.751
 8 11080 성북구   0.929
 9 11090 강북구   0.589
10 11100 도봉구   0.578
# ℹ 219 more rows
…
