Data Science - 데이터 시각화하기
…
    Modified

      February 29, 2024

실습 개요

이 실습은 R로 데이터사이언스를 하는 과정 중 데이터 시각화하기(visualizing)를 다룬다. 데이터 시각화하기는 tidyverse의 핵심 패키지 중의 하나인 ggplot2 에서 제공된다. 모든 실습의 시작은 tidyverse 패키지를 불러오는 것이다.

library(tidyverse)

이 실습에서는 ggplot2 패키지 속에 포함되어 이쓴 mpg 데이터를 사용한다.

mpg

# A tibble: 234 × 11
   manufacturer model      displ  year   cyl trans drv     cty   hwy fl    class
   <chr>        <chr>      <dbl> <int> <int> <chr> <chr> <int> <int> <chr> <chr>
 1 audi         a4           1.8  1999     4 auto… f        18    29 p     comp…
 2 audi         a4           1.8  1999     4 manu… f        21    29 p     comp…
 3 audi         a4           2    2008     4 manu… f        20    31 p     comp…
 4 audi         a4           2    2008     4 auto… f        21    30 p     comp…
 5 audi         a4           2.8  1999     6 auto… f        16    26 p     comp…
 6 audi         a4           2.8  1999     6 manu… f        18    26 p     comp…
 7 audi         a4           3.1  2008     6 auto… f        18    27 p     comp…
 8 audi         a4 quattro   1.8  1999     4 manu… 4        18    26 p     comp…
 9 audi         a4 quattro   1.8  1999     4 auto… 4        16    25 p     comp…
10 audi         a4 quattro   2    2008     4 manu… 4        20    28 p     comp…
# ℹ 224 more rows
…
