데이터 수집하기 – Data Science
…
library(rvest)

2.1 웹스크레이핑의 실제 1: 테이블이 하나 있는 경우

위키피디어의 한 항목(List of countries and dependencies by population)에는 표 하나가 포함되어 있다. 해당 표의 데이터를 수집한다.

url <- "https://en.wikipedia.org/wiki/List_of_countries_and_dependencies_by_population"
my_table <- url |> 
  read_html() |> 
  html_element("table") |> 
  html_table()
my_table

# A tibble: 240 × 6
   Location      Population    `% ofworld` Date     Source (official or …¹ Notes
   <chr>         <chr>         <chr>       <chr>    <chr>                  <chr>
 1 World         8,232,000,000 100%        13 Jun … UN projection[1][3]    ""   
 2 India         1,417,492,000 17.3%       1 Jul 2… Official projection[4] "[b]"
 3 China         1,408,280,000 17.2%       31 Dec … Official estimate[5]   "[c]"
 4 United States 340,110,988   4.1%        1 Jul 2… Official estimate[6]   "[d]"
 5 Indonesia     284,438,782   3.5%        30 Jun … National annual proje… ""   
 6 Pakistan      241,499,431   2.9%        1 Mar 2… 2023 census result[8]  "[e]"
 7 Nigeria       223,800,000   2.7%        1 Jul 2… Official projection[9] ""   
 8 Brazil        213,421,037   2.6%        1 Jul 2… Official estimate[10]  ""   
 9 Bangladesh    169,828,911   2.1%        14 Jun … 2022 census result[11] "[f]"
10 Russia        146,028,325   1.8%        1 Jan 2… Official estimate[13]  "[g]"
# ℹ 230 more rows
# ℹ abbreviated name: ¹​`Source (official or fromthe United Nations)`
…
my_table

# A tibble: 240 × 5
   location      population pop_pct date       source                       
   <chr>              <dbl>   <dbl> <date>     <chr>                        
 1 World         8232000000   100   2025-06-13 UN projection[1][3]          
 2 India         1417492000    17.3 2025-07-01 Official projection[4]       
 3 China         1408280000    17.2 2024-12-31 Official estimate[5]         
 4 United States  340110988     4.1 2024-07-01 Official estimate[6]         
 5 Indonesia      284438782     3.5 2025-06-30 National annual projection[7]
 6 Pakistan       241499431     2.9 2023-03-01 2023 census result[8]        
 7 Nigeria        223800000     2.7 2023-07-01 Official projection[9]       
 8 Brazil         213421037     2.6 2025-07-01 Official estimate[10]        
 9 Bangladesh     169828911     2.1 2022-06-14 2022 census result[11]       
10 Russia         146028325     1.8 2025-01-01 Official estimate[13]        
# ℹ 230 more rows
…
코드에 포함된 parse_number()과 str_remove_all() 함수는 매우 유용한 함수이므로 잘 익혀 둘 필요가 있다. parse_number()함수는 readr 패키지에 포함되어 있는 것으로, 투입 벡터에서 오로지 숫자만 골라내 실수형 벡터를 생성해준다. 위의 예를 보자면, my_table 데이터 프레임의 population 컬럼은 인구수와 콤마가 결합된 문자형 벡터이므로 콤마를 제거하고 숫자만 추출할 필요가 있다. 유사한 함수에 parse_logical(), parse_integer(), parse_double(), parse_character(), parse_factor() 등이 있다. str_remove_all() 함수는 tidyverse의 핵심 패키지 중의 하나인 stringr 패키지에 포함되어 있는 것으로, 투입 벡터에서 특정한 문자나 문자 패턴을 제거해 준다. 위의 예를 보자면, my_table 데이터 프레임의 pop_pct 컬럼에는 %라는 부호가 포함되어 있기 때문에 그것을 제거할 필요가 있다. 그러므로 str_remove_all() 함수는 셀에 포함되어 있는 특정 문자 모두를 제거할 때 사용할 수 있는 함수이다. 유사한 함수에 str_remove()도 있는데, 이것은 셀에 포함되어 있는 특정 문자 중 단지 첫 번째 것만 제거한다. 문자열을 잘 다루려면 정규표현식(regular expression)에 대한 상당한 이해가 있어야 한다. 다음의 링크가 도움이 될 수 있을 것이다. https://bookdown.org/ahn_media/bookdown-demo/cleantool.html#%EC%A0%95%EA%B7%9C%ED%91%9C%ED%98%84%EC%8B%9Dregular-expressions

2.2 웹스크레이핑의 실제 2: 테이블이 둘 이상인 경우

위키피디아의 한 항목(List of FIPS country codes)에는 동일한 내용에 대해 여러 개의 표가 나타나 있다. 개별 표의 데이터를 수집한 후 결합하여 단일한 데이터 프레임을 구성한다.

url <- "https://en.wikipedia.org/wiki/List_of_FIPS_country_codes"
my_tables <- url |> 
  read_html() |> 
  html_elements("table") |> # 'element'가 아니라 'elements'이다.
  html_table() |> 
  bind_rows()
my_tables

# A tibble: 277 × 10
   Code    `Short-form name` .mw-parser-output .n…¹ .mw-parser-output .n…² ...3 
   <chr>   <chr>             <chr>                  <chr>                  <chr>
 1 .mw-pa… Aruba             <NA>                   <NA>                   <NA> 
 2 AC      Antigua and Barb… <NA>                   <NA>                   <NA> 
 3 AD      Akrotiri          <NA>                   <NA>                   <NA> 
 4 AE      United Arab Emir… <NA>                   <NA>                   <NA> 
 5 AF      Afghanistan       <NA>                   <NA>                   <NA> 
 6 AG      Algeria           <NA>                   <NA>                   <NA> 
 7 AJ      Azerbaijan        <NA>                   <NA>                   <NA> 
 8 AL      Albania           <NA>                   <NA>                   <NA> 
 9 AM      Armenia           <NA>                   <NA>                   <NA> 
10 AN      Andorra           <NA>                   <NA>                   <NA> 
# ℹ 267 more rows
# ℹ abbreviated names:
…
수집한 데이터를 약간 가공한다. 역시 필요한 컬럼만 남기고, 이름을 바꿔준다. 마지막 str_extract는 Aruba의 단축어에 원치 않는 문자열이 추가되어 있어 제거하기 위한 코드이다.

my_tables <- my_tables |> 
  select(1, 2) |> 
  rename(
    code = "Code", 
    short_name = "Short-form name"
  ) |> 
  mutate(
    code = str_extract(code, "[A-Z][A-Z]") # 알파벳 두 개가 연결되어 있는 것을 추출
  )
my_tables

# A tibble: 277 × 2
   code  short_name          
   <chr> <chr>               
 1 AA    Aruba               
 2 AC    Antigua and Barbuda 
 3 AD    Akrotiri            
 4 AE    United Arab Emirates
 5 AF    Afghanistan         
 6 AG    Algeria             
 7 AJ    Azerbaijan          
 8 AL    Albania             
 9 AM    Armenia             
10 AN    Andorra             
# ℹ 267 more rows
…
