Data Science – quarto-input1609345ac874f903
…
Code 2

Result 2

library(tidyverse)
library(rvest)
url <- "https://en.wikipedia.org/wiki/List_of_countries_and_dependencies_by_population"
my_table <- url |> 
  read_html() |> 
  html_element("table") |> 
  html_table()

my_table

# A tibble: 240 × 6
   Location      Population    `% ofworld` Date     Source (official or …¹ Notes
   <chr>         <chr>         <chr>       <chr>    <chr>                  <chr>
 1 World         8,232,000,000 100%        13 Jun … UN projection[1][3]    ""   
 2 India         1,417,492,000 17.2%       1 Jul 2… Official projection[4] "[b]"
 3 China         1,408,280,000 17.1%       31 Dec … Official estimate[5]   "[c]"
 4 United States 340,110,988   4.1%        1 Jul 2… Official estimate[6]   "[d]"
 5 Indonesia     284,438,782   3.5%        30 Jun … National annual proje… ""   
 6 Pakistan      241,499,431   2.9%        1 Mar 2… 2023 census result[8]  "[e]"
 7 Nigeria       223,800,000   2.7%        1 Jul 2… Official projection[9] ""   
 8 Brazil        213,421,037   2.6%        1 Jul 2… Official estimate[10]  ""   
 9 Bangladesh    169,828,911   2.1%        14 Jun … 2022 census result[11] "[f]"
10 Russia        146,028,325   1.8%        1 Jan 2… Official estimate[13]  "[g]"
# ℹ 230 more rows
# ℹ abbreviated name: ¹​`Source (official or fromthe United Nations)`
…
my_table_new 

# A tibble: 240 × 5
   location      population pop_pct date       source                       
   <chr>              <dbl>   <dbl> <date>     <chr>                        
 1 World         8232000000   100   2025-06-13 UN projection[1][3]          
 2 India         1417492000    17.2 2025-07-01 Official projection[4]       
 3 China         1408280000    17.1 2024-12-31 Official estimate[5]         
 4 United States  340110988     4.1 2024-07-01 Official estimate[6]         
 5 Indonesia      284438782     3.5 2025-06-30 National annual projection[7]
 6 Pakistan       241499431     2.9 2023-03-01 2023 census result[8]        
 7 Nigeria        223800000     2.7 2023-07-01 Official projection[9]       
 8 Brazil         213421037     2.6 2025-07-01 Official estimate[10]        
 9 Bangladesh     169828911     2.1 2022-06-14 2022 census result[11]       
10 Russia         146028325     1.8 2025-01-01 Official estimate[13]        
# ℹ 230 more rows
…
final_data <- map_dfr(1:12, function(p) {
  request(base_url) |>
    req_url_query(
      serviceKey = your_api_key, 
      page = p, 
      perPage = 1000) |>
    req_perform() |>
    resp_body_json() |>
    _[["data"]] |> bind_rows() |> as_tibble()
})

final_data

# A tibble: 12,000 × 18
   경도         교육지원청명 교육지원청코드 데이터기준일자 변경일자 본교분교구분
   <chr>        <chr>                 <int> <chr>          <chr>    <chr>       
 1 126.8307516… 전북특별자치도정읍교육…        8362000 2025-09-22     2025-07… 본교        
 2 126.6262122… 인천광역시서부교육지원…        7361000 2025-09-22     2025-07… 본교        
 3 127.6148355… 전북특별자치도장수교육…        8422000 2025-09-22     2025-07… 본교        
 4 129.3965196… 경상북도포항교육지원청…        8761000 2025-09-22     2025-07… 본교        
 5 129.0793873… 부산광역시동래교육지원…        7191000 2025-09-22     2025-07… 본교        
 6 128.8886173… 경상남도김해교육지원청…        9091000 2025-09-22     2025-07… 본교        
 7 128.0643803… 경상남도사천교육지원청…        9081000 2025-09-22     2025-07… 본교        
 8 126.4853077… 전라남도무안교육지원청…        8661000 2025-09-22     2025-07… 본교        
 9 126.7792304… 경기도파주교육지원청……        7681000 2025-09-22     2025-07… 본교        
10 128.5672852… 대구광역시서부교육지원…        7261000 2025-09-22     2025-07… 본교        
# ℹ 11,990 more rows
# ℹ 12 more variables: 생성일자 <chr>, 설립일자 <chr>, 설립형태 <chr>,
#   소재지도로명주소 <chr>, 소재지지번주소 <chr>, 시도교육청명 <chr>,
#   시도교육청코드 <int>, 운영상태 <chr>, 위도 <chr>, 학교ID <chr>,
#   학교급구분 <chr>, 학교명 <chr>
…
